…
#>     control = nlme::lmeControl(opt = "optim", maxIter = 500, msMaxIter = 500)
#>   )
#> lme.formula
#> log(bmi) ~ gsp(age, knots = c(2, 8, 12), degree = rep(3, 4), smooth = rep(2, 3))
#> data
#> ~gsp(age, knots = c(2, 8, 12), degree = rep(3, 4), smooth = rep(2, 3)) | ID
#> ML
#> stats::na.omit
#> nlme::lmeControl(opt = "optim", maxIter = 500, msMaxIter = 500)
class(res)
#> [1] "lme"
sres <- tidy(res)
sres[["term"]] <- sub("gsp\\(.*\\)\\)", "gsp(...)", sres[["term"]]) # simplify output
sres
#> # A tibble: 36 x 8
#>    effect   group term              estimate std.error    df statistic   p.value
#>    <chr>    <chr> <chr>                <dbl>     <dbl> <dbl>     <dbl>     <dbl>
#>  1 fixed    fixed (Intercept)         2.76     0.0212    409    131.    0       
#>  2 fixed    fixed gsp(...)D1(0)       0.237    0.0394    409      6.01  4.05e- 9
#>  3 fixed    fixed gsp(...)D2(0)      -0.298    0.0478    409     -6.24  1.13e- 9
#>  4 fixed    fixed gsp(...)D3(0)       0.171    0.0257    409      6.65  9.24e-11
#>  5 fixed    fixed gsp(...)C(2).3     -0.182    0.0267    409     -6.82  3.35e-11
#>  6 fixed    fixed gsp(...)C(8).3      0.0225   0.00504   409      4.46  1.06e- 5
#>  7 fixed    fixed gsp(...)C(12).3    -0.0427   0.0115    409     -3.71  2.38e- 4
#>  8 ran_pars ID    sd_(Intercept)      0.106   NA          NA     NA    NA       
#>  9 ran_pars ID    cor_gsp(...)D1(0~  -0.553   NA          NA     NA    NA       
#> 10 ran_pars ID    cor_gsp(...)D2(0~   0.299   NA          NA     NA    NA       
#> # ... with 26 more rows
```
…
